{"count":70,"page":2,"page_size":10,"total_pages":7,"incidents":[{"id":"e25ea43e","title":"OpenSSL 1.1.1h released","date":"2020-11-20T11:03:30.331Z","modified":"2020-12-15T11:06:08.950Z","scheduled":null,"severity":"partial-outage","affectedsystems":["openssl_111"],"resolved":true,"content":"<p>New OpenSSL version has been released. Our automated processes are building a new key extraction agent to support it. All agents should automatically upgrade within the next 5 hours.</p>\n<!--- language code: en -->\n"},{"id":"dc845ba8","title":"Google Chrome v87.0.4280.66 released","date":"2020-11-18T10:55:42.144Z","modified":"2020-12-15T11:06:08.903Z","scheduled":null,"severity":"partial-outage","affectedsystems":["chrome"],"resolved":true,"content":"<p>New Google Chrome version has been released. Our automated processes are building a new key extraction agent to support it. All agents should automatically upgrade within the next 5 hours.</p>\n<!--- language code: en -->\n"},{"id":"5c38dc74","title":"Microsoft Edge v86.0.622.68 released","date":"2020-11-14T10:34:54.641Z","modified":"2020-12-15T11:06:08.916Z","scheduled":null,"severity":"partial-outage","affectedsystems":["edge"],"resolved":true,"content":"<p>New Microsoft Edge version has been released. Our automated processes are building a new key extraction agent to support it. All agents should automatically upgrade within the next 5 hours.</p>\n<!--- language code: en -->\n"},{"id":"75b1595b","title":"Google Chrome v86.0.4240.198 released","date":"2020-11-11T23:16:08.452Z","modified":"2020-12-15T11:06:08.895Z","scheduled":null,"severity":"partial-outage","affectedsystems":["chrome"],"resolved":true,"content":"<p>New Google Chrome version has been released. Our automated processes are building a new key extraction agent to support it. All agents should automatically upgrade within the next 5 hours.</p>\n<!--- language code: en -->\n"},{"id":"52b8a226","title":"Microsoft Edge v86.0.622.61 released","date":"2020-11-03T10:31:36.749Z","modified":"2020-12-15T11:06:08.911Z","scheduled":null,"severity":"partial-outage","affectedsystems":["edge"],"resolved":true,"content":"<p>New Microsoft Edge version has been released. Our automated processes are building a new key extraction agent to support it. All agents should automatically upgrade within the next 5 hours.</p>\n<!--- language code: en -->\n"},{"id":"14cd6ab4","title":"Google Chrome v86.0.4240.183 released","date":"2020-11-03T00:12:46.448Z","modified":"2020-12-15T11:06:08.887Z","scheduled":null,"severity":"partial-outage","affectedsystems":["chrome"],"resolved":true,"content":"<p>New Google Chrome version has been released. Our automated processes are building a new key extraction agent to support it. All agents should automatically upgrade within the next 5 hours.</p>\n<!--- language code: en -->\n"},{"id":"d26dc356","title":"Microsoft Edge v86.0.622.58 released","date":"2020-11-03T00:11:51.791Z","modified":"2020-12-15T11:06:08.891Z","scheduled":null,"severity":"partial-outage","affectedsystems":["edge"],"resolved":true,"content":"<p>New Microsoft Edge version has been released. Our automated processes are building a new key extraction agent to support it. All agents should automatically upgrade within the next 5 hours.</p>\n<!--- language code: en -->\n"},{"id":"767c2d92","title":"Microsoft Edge v86.0.622.56 released","date":"2020-10-28T10:46:36.349Z","modified":"2020-12-15T11:06:08.883Z","scheduled":null,"severity":"partial-outage","affectedsystems":["edge"],"resolved":true,"content":"<p>New Microsoft Edge version has been released. Our automated processes are building a new key extraction agent to support it. All agents should automatically upgrade within the next 5 hours.</p>\n<!--- language code: en -->\n"},{"id":"f954a816","title":"Microsoft Edge v86.0.622.43 released","date":"2020-10-17T11:00:34.693Z","modified":"2020-12-15T11:06:08.878Z","scheduled":null,"severity":"partial-outage","affectedsystems":["edge"],"resolved":true,"content":"<p>New Microsoft Edge version has been released. Our automated processes are building a new key extraction agent to support it. All agents should automatically upgrade within the next 5 hours.</p>\n<!--- language code: en -->\n"},{"id":"04cd0d42","title":"Support Dropbox v107.4.443","date":"2020-10-16T03:51:44.056Z","modified":"2020-12-15T11:06:08.874Z","scheduled":null,"severity":"partial-outage","affectedsystems":["dropbox"],"resolved":true,"content":"<p>New Dropbox version has been released. Our automated processes are building a new key extraction agent to support it. All agents should automatically upgrade within the next 5 hours.</p>\n<!--- language code: en -->\n"}]}