{"count":98,"page":5,"page_size":10,"total_pages":10,"incidents":[{"id":"5c38dc74","title":"Microsoft Edge v86.0.622.68 released","date":"2020-11-14T10:34:54.641Z","modified":"2021-03-23T01:51:18.479Z","scheduled":null,"severity":"partial-outage","affectedsystems":["edge"],"resolved":true,"content":"<p>New Microsoft Edge version has been released. Our automated processes are building a new key extraction agent to support it. All agents should automatically upgrade within the next 5 hours.</p>\n<!--- language code: en -->\n"},{"id":"75b1595b","title":"Google Chrome v86.0.4240.198 released","date":"2020-11-11T23:16:08.452Z","modified":"2021-03-23T01:51:18.476Z","scheduled":null,"severity":"partial-outage","affectedsystems":["chrome"],"resolved":true,"content":"<p>New Google Chrome version has been released. Our automated processes are building a new key extraction agent to support it. All agents should automatically upgrade within the next 5 hours.</p>\n<!--- language code: en -->\n"},{"id":"52b8a226","title":"Microsoft Edge v86.0.622.61 released","date":"2020-11-03T10:31:36.749Z","modified":"2021-03-23T01:51:18.479Z","scheduled":null,"severity":"partial-outage","affectedsystems":["edge"],"resolved":true,"content":"<p>New Microsoft Edge version has been released. Our automated processes are building a new key extraction agent to support it. All agents should automatically upgrade within the next 5 hours.</p>\n<!--- language code: en -->\n"},{"id":"14cd6ab4","title":"Google Chrome v86.0.4240.183 released","date":"2020-11-03T00:12:46.448Z","modified":"2021-03-23T01:51:18.474Z","scheduled":null,"severity":"partial-outage","affectedsystems":["chrome"],"resolved":true,"content":"<p>New Google Chrome version has been released. Our automated processes are building a new key extraction agent to support it. All agents should automatically upgrade within the next 5 hours.</p>\n<!--- language code: en -->\n"},{"id":"d26dc356","title":"Microsoft Edge v86.0.622.58 released","date":"2020-11-03T00:11:51.791Z","modified":"2021-03-23T01:51:18.475Z","scheduled":null,"severity":"partial-outage","affectedsystems":["edge"],"resolved":true,"content":"<p>New Microsoft Edge version has been released. Our automated processes are building a new key extraction agent to support it. All agents should automatically upgrade within the next 5 hours.</p>\n<!--- language code: en -->\n"},{"id":"767c2d92","title":"Microsoft Edge v86.0.622.56 released","date":"2020-10-28T10:46:36.349Z","modified":"2021-03-23T01:51:18.474Z","scheduled":null,"severity":"partial-outage","affectedsystems":["edge"],"resolved":true,"content":"<p>New Microsoft Edge version has been released. Our automated processes are building a new key extraction agent to support it. All agents should automatically upgrade within the next 5 hours.</p>\n<!--- language code: en -->\n"},{"id":"f954a816","title":"Microsoft Edge v86.0.622.43 released","date":"2020-10-17T11:00:34.693Z","modified":"2021-03-23T01:51:18.473Z","scheduled":null,"severity":"partial-outage","affectedsystems":["edge"],"resolved":true,"content":"<p>New Microsoft Edge version has been released. Our automated processes are building a new key extraction agent to support it. All agents should automatically upgrade within the next 5 hours.</p>\n<!--- language code: en -->\n"},{"id":"04cd0d42","title":"Support Dropbox v107.4.443","date":"2020-10-16T03:51:44.056Z","modified":"2021-03-23T01:51:18.472Z","scheduled":null,"severity":"partial-outage","affectedsystems":["dropbox"],"resolved":true,"content":"<p>New Dropbox version has been released. Our automated processes are building a new key extraction agent to support it. All agents should automatically upgrade within the next 5 hours.</p>\n<!--- language code: en -->\n"},{"id":"6ea76480","title":"Dropbox v107.4.443 released","date":"2020-10-16T01:35:59.000Z","modified":"2021-03-23T01:51:18.471Z","scheduled":null,"severity":"partial-outage","affectedsystems":["dropbox"],"resolved":true,"content":"<p>New Dropbox version has been released. Our automated processes are building a new key extraction agent to support it. All agents should automatically upgrade within the next 5 hours.</p>\n"},{"id":"78ce43d2","title":"LSASS v10.0.19041.546 released","date":"2020-10-15T12:36:04.636Z","modified":"2021-03-23T01:51:18.471Z","scheduled":null,"severity":"partial-outage","affectedsystems":["lsass_win10_2004"],"resolved":true,"content":"<p>New LSASS version has been released. Our automated processes are building a new key extraction agent to support it. All agents should automatically upgrade within the next 5 hours.</p>\n<!--- language code: en -->\n"}]}