{"count":84,"page":9,"page_size":10,"total_pages":9,"incidents":[{"id":"70b63d7c","title":"Windows LSASS v10.0.17763.1282 released","date":"2020-06-12T22:36:42.083Z","modified":"2021-02-10T22:44:22.789Z","scheduled":null,"severity":"partial-outage","affectedsystems":["lsass_winserv2019"],"resolved":true,"content":"<p>New LSASS version has been released. Our automated processes are building a new key extraction agent to support it. All agents should automatically upgrade within the next 5 hours.</p>\n<!--- language code: en -->\n"},{"id":"e950e5b0","title":"Windows LSASS v10.0.18362.900 released","date":"2020-06-12T22:36:42.083Z","modified":"2021-02-10T22:44:22.791Z","scheduled":null,"severity":"partial-outage","affectedsystems":["lsass_win10_1909"],"resolved":true,"content":"<p>New LSASS version has been released. Our automated processes are building a new key extraction agent to support it. All agents should automatically upgrade within the next 5 hours.</p>\n<!--- language code: en -->\n"},{"id":"3b5eec46","title":"Windows LSASS v10.0.19041.329 released","date":"2020-06-12T22:36:42.083Z","modified":"2021-02-10T22:44:22.792Z","scheduled":null,"severity":"partial-outage","affectedsystems":["lsass_win10_2004"],"resolved":true,"content":"<p>New LSASS version has been released. Our automated processes are building a new key extraction agent to support it. All agents should automatically upgrade within the next 5 hours.</p>\n<!--- language code: en -->\n"},{"id":"74a0231a","title":"Dropbox v99.4.591 release","date":"2020-06-12T21:46:02.521Z","modified":"2021-02-10T22:44:22.782Z","scheduled":null,"severity":"partial-outage","affectedsystems":["dropbox"],"resolved":true,"content":"<p>New Dropbox version has been released. Our automated processes are building a new key extraction agent to support it. All agents should automatically upgrade within the next 5 hours.</p>\n<!--- language code: en -->\n"}]}