{"count":52,"page":6,"page_size":10,"total_pages":6,"incidents":[{"id":"3b5eec46","title":"Windows LSASS v10.0.19041.329 released","date":"2020-06-12T22:36:42.083Z","modified":"2020-10-17T11:01:49.390Z","scheduled":null,"severity":"partial-outage","affectedsystems":["lsass_win10_2004"],"resolved":true,"content":"<p>New LSASS version has been released. Our automated processes are building a new key extraction agent to support it. All agents should automatically upgrade within the next 5 hours.</p>\n<!--- language code: en -->\n"},{"id":"74a0231a","title":"Dropbox v99.4.591 release","date":"2020-06-12T21:46:02.521Z","modified":"2020-10-17T11:01:49.380Z","scheduled":null,"severity":"partial-outage","affectedsystems":["dropbox"],"resolved":true,"content":"<p>New Dropbox version has been released. Our automated processes are building a new key extraction agent to support it. All agents should automatically upgrade within the next 5 hours.</p>\n<!--- language code: en -->\n"}]}