{"count":79,"page":8,"page_size":10,"total_pages":8,"incidents":[{"id":"3107cb22","title":"Google Chrome v83.0.4103.116 released","date":"2020-06-23T09:30:02.739Z","modified":"2021-01-29T10:34:51.554Z","scheduled":null,"severity":"partial-outage","affectedsystems":["chrome"],"resolved":true,"content":"<p>New Google Chrome version has been released. Our automated processes are building a new key extraction agent to support it. All agents should automatically upgrade within the next 5 hours.</p>\n<!--- language code: en -->\n"},{"id":"d1701c1a","title":"Microsoft Edge v83.0.478.54 released","date":"2020-06-18T02:36:20.237Z","modified":"2021-01-29T10:34:51.552Z","scheduled":null,"severity":"partial-outage","affectedsystems":["edge"],"resolved":true,"content":"<p>New Microsoft Edge version has been released. Our automated processes are building a new key extraction agent to support it. All agents should automatically upgrade within the next 5 hours.</p>\n<!--- language code: en -->\n"},{"id":"08f7780e","title":"Google Chrome v83.0.4103.106 released","date":"2020-06-16T21:49:36.476Z","modified":"2021-01-29T10:34:51.548Z","scheduled":null,"severity":"partial-outage","affectedsystems":["chrome"],"resolved":true,"content":"<p>New Google Chrome version has been released. Our automated processes are building a new key extraction agent to support it. All agents should automatically upgrade within the next 5 hours.</p>\n<!--- language code: en -->\n"},{"id":"eb0d65d8","title":"Microsoft Edge v83.0.478.50 released","date":"2020-06-16T21:49:36.476Z","modified":"2021-01-29T10:34:51.550Z","scheduled":null,"severity":"partial-outage","affectedsystems":["edge"],"resolved":true,"content":"<p>New Microsoft Edge version has been released. Our automated processes are building a new key extraction agent to support it. All agents should automatically upgrade within the next 5 hours.</p>\n<!--- language code: en -->\n"},{"id":"17308de4","title":"Windows LSASS v10.0.14393.3750 released","date":"2020-06-12T22:36:42.083Z","modified":"2021-01-29T10:34:51.538Z","scheduled":null,"severity":"partial-outage","affectedsystems":["lsass_winserv2016"],"resolved":true,"content":"<p>New LSASS version has been released. Our automated processes are building a new key extraction agent to support it. All agents should automatically upgrade within the next 5 hours.</p>\n<!--- language code: en -->\n"},{"id":"70b63d7c","title":"Windows LSASS v10.0.17763.1282 released","date":"2020-06-12T22:36:42.083Z","modified":"2021-01-29T10:34:51.541Z","scheduled":null,"severity":"partial-outage","affectedsystems":["lsass_winserv2019"],"resolved":true,"content":"<p>New LSASS version has been released. Our automated processes are building a new key extraction agent to support it. All agents should automatically upgrade within the next 5 hours.</p>\n<!--- language code: en -->\n"},{"id":"e950e5b0","title":"Windows LSASS v10.0.18362.900 released","date":"2020-06-12T22:36:42.083Z","modified":"2021-01-29T10:34:51.543Z","scheduled":null,"severity":"partial-outage","affectedsystems":["lsass_win10_1909"],"resolved":true,"content":"<p>New LSASS version has been released. Our automated processes are building a new key extraction agent to support it. All agents should automatically upgrade within the next 5 hours.</p>\n<!--- language code: en -->\n"},{"id":"3b5eec46","title":"Windows LSASS v10.0.19041.329 released","date":"2020-06-12T22:36:42.083Z","modified":"2021-01-29T10:34:51.546Z","scheduled":null,"severity":"partial-outage","affectedsystems":["lsass_win10_2004"],"resolved":true,"content":"<p>New LSASS version has been released. Our automated processes are building a new key extraction agent to support it. All agents should automatically upgrade within the next 5 hours.</p>\n<!--- language code: en -->\n"},{"id":"74a0231a","title":"Dropbox v99.4.591 release","date":"2020-06-12T21:46:02.521Z","modified":"2021-01-29T10:34:51.528Z","scheduled":null,"severity":"partial-outage","affectedsystems":["dropbox"],"resolved":true,"content":"<p>New Dropbox version has been released. Our automated processes are building a new key extraction agent to support it. All agents should automatically upgrade within the next 5 hours.</p>\n<!--- language code: en -->\n"}]}