{"count":98,"page":7,"page_size":10,"total_pages":10,"incidents":[{"id":"b495a1a8","title":"Microsoft Edge v85.0.564.44 released","date":"2020-09-02T01:32:49.026Z","modified":"2021-03-23T00:54:41.331Z","scheduled":null,"severity":"partial-outage","affectedsystems":["edge"],"resolved":true,"content":"<p>New Microsoft Edge version has been released. Our automated processes are building a new key extraction agent to support it. All agents should automatically upgrade within the next 5 hours.</p>\n<!--- language code: en -->\n"},{"id":"463638da","title":"Microsoft Edge v85.0.564.41 released","date":"2020-08-31T14:20:57.133Z","modified":"2021-03-23T00:54:41.326Z","scheduled":null,"severity":"partial-outage","affectedsystems":["edge"],"resolved":true,"content":"<p>New Microsoft Edge version has been released. Our automated processes are building a new key extraction agent to support it. All agents should automatically upgrade within the next 5 hours.</p>\n<!--- language code: en -->\n"},{"id":"6d7e0fe2","title":"Google Chrome v85.0.4183.83 released","date":"2020-08-25T22:12:02.556Z","modified":"2021-03-23T00:54:41.320Z","scheduled":null,"severity":"partial-outage","affectedsystems":["chrome"],"resolved":true,"content":"<p>New Google Chrome version has been released. Our automated processes are building a new key extraction agent to support it. All agents should automatically upgrade within the next 5 hours.</p>\n<!--- language code: en -->\n"},{"id":"a44ab934","title":"Microsoft Edge v84.0.522.63 released","date":"2020-08-21T22:40:22.402Z","modified":"2021-03-23T00:54:41.314Z","scheduled":null,"severity":"partial-outage","affectedsystems":["edge"],"resolved":true,"content":"<p>New Microsoft Edge version has been released. Our automated processes are building a new key extraction agent to support it. All agents should automatically upgrade within the next 5 hours.</p>\n<!--- language code: en -->\n"},{"id":"fac15332","title":"Google Chrome v84.0.4147.135 released","date":"2020-08-19T00:50:45.000Z","modified":"2021-03-23T00:54:41.299Z","scheduled":null,"severity":"partial-outage","affectedsystems":["chrome"],"resolved":true,"content":"<p>New Google Chrome version has been released. Our automated processes are building a new key extraction agent to support it. All agents should automatically upgrade within the next 5 hours.</p>\n"},{"id":"bc5ee368","title":"Microsoft Edge v84.0.522.61 released","date":"2020-08-19T00:43:01.000Z","modified":"2021-03-23T00:54:41.307Z","scheduled":null,"severity":"partial-outage","affectedsystems":["edge"],"resolved":true,"content":"<p>New Microsoft Edge version has been released. Our automated processes are building a new key extraction agent to support it. All agents should automatically upgrade within the next 5 hours.</p>\n"},{"id":"b6a91f36","title":"Dropbox v104.4.175 released","date":"2020-08-14T04:28:31.000Z","modified":"2021-03-23T00:54:41.292Z","scheduled":null,"severity":"partial-outage","affectedsystems":["dropbox"],"resolved":true,"content":"<p>New Dropbox version has been released. Our automated processes are building a new key extraction agent to support it. All agents should automatically upgrade within the next 5 hours.</p>\n"},{"id":"7976bf18","title":"LSASS (Windows 10 v1909; v10.0.18362.997) released","date":"2020-08-11T22:37:17.407Z","modified":"2021-03-23T00:54:41.274Z","scheduled":null,"severity":"partial-outage","affectedsystems":["lsass_win10_1909"],"resolved":true,"content":"<p>New LSASS (Windows 10 v1909) version has been released. Our automated processes are building a new key extraction agent to support it. All agents should automatically upgrade within the next 5 hours.</p>\n<!--- language code: en -->\n"},{"id":"6cfd18ef","title":"Google Chrome v84.0.4147.125 released","date":"2020-08-11T22:01:07.454Z","modified":"2021-03-23T00:54:41.268Z","scheduled":null,"severity":"partial-outage","affectedsystems":["chrome"],"resolved":true,"content":"<p>New Google Chrome version has been released. Our automated processes are building a new key extraction agent to support it. All agents should automatically upgrade within the next 5 hours.</p>\n<!--- language code: en -->\n"},{"id":"5ba9cbae","title":"Microsoft Edge v84.0.522.59 released","date":"2020-08-11T21:20:42.000Z","modified":"2021-03-23T00:54:41.286Z","scheduled":null,"severity":"partial-outage","affectedsystems":["edge"],"resolved":true,"content":"<p>New Microsoft Edge version has been released. Our automated processes are building a new key extraction agent to support it. All agents should automatically upgrade within the next 5 hours.</p>\n"}]}