{"count":90,"page":1,"page_size":10,"total_pages":9,"incidents":[{"id":"438589fa","title":"Microsoft Edge v88.0.705.81 released","date":"2021-02-26T05:05:58.653Z","modified":"2021-02-26T05:10:09.199Z","scheduled":null,"severity":"partial-outage","affectedsystems":["edge"],"resolved":true,"content":"<p>New Microsoft Edge version has been released. Our automated processes are building a new key extraction agent to support it. All agents should automatically upgrade within the next 5 hours.</p>\n<!--- language code: en -->\n"},{"id":"b40cb096","title":"Google Chrome v88.0.4324.190 released","date":"2021-02-23T04:48:39.079Z","modified":"2021-02-26T05:10:09.195Z","scheduled":null,"severity":"partial-outage","affectedsystems":["chrome"],"resolved":true,"content":"<p>New Google Chrome version has been released. Our automated processes are building a new key extraction agent to support it. All agents should automatically upgrade within the next 5 hours.</p>\n<!--- language code: en -->\n"},{"id":"702ef632","title":"Microsoft Edge v88.0.705.74 released","date":"2021-02-19T05:06:48.226Z","modified":"2021-02-26T05:10:09.197Z","scheduled":null,"severity":"partial-outage","affectedsystems":["edge"],"resolved":true,"content":"<p>New Microsoft Edge version has been released. Our automated processes are building a new key extraction agent to support it. All agents should automatically upgrade within the next 5 hours.</p>\n<!--- language code: en -->\n"},{"id":"58aa7b3a","title":"Dropbox v116.4.368 released","date":"2021-02-19T04:51:17.394Z","modified":"2021-02-26T05:10:09.192Z","scheduled":null,"severity":"partial-outage","affectedsystems":["dropbox"],"resolved":true,"content":"<p>New Dropbox version has been released. Our automated processes are building a new key extraction agent to support it. All agents should automatically upgrade within the next 5 hours.</p>\n<!--- language code: en -->\n"},{"id":"883f0752","title":"Google Chrome v88.0.4324.182 released","date":"2021-02-16T21:28:39.980Z","modified":"2021-02-26T05:10:09.189Z","scheduled":null,"severity":"partial-outage","affectedsystems":["chrome"],"resolved":true,"content":"<p>New Google Chrome version has been released. Our automated processes are building a new key extraction agent to support it. All agents should automatically upgrade within the next 5 hours.</p>\n<!--- language code: en -->\n"},{"id":"6630f429","title":"Microsoft Edge v88.0.705.68 released","date":"2021-02-12T22:28:48.224Z","modified":"2021-02-26T05:10:09.186Z","scheduled":null,"severity":"partial-outage","affectedsystems":["edge"],"resolved":true,"content":"<p>New Microsoft Edge version has been released. Our automated processes are building a new key extraction agent to support it. All agents should automatically upgrade within the next 5 hours.</p>\n<!--- language code: en -->\n"},{"id":"28aeebe0","title":"LSASS v10.0.17763.1728 released","date":"2021-02-10T22:43:48.748Z","modified":"2021-02-26T05:10:09.184Z","scheduled":null,"severity":"partial-outage","affectedsystems":["lsass_winserv2019"],"resolved":true,"content":"<p>New LSASS version has been released. Our automated processes are building a new key extraction agent to support it. All agents should automatically upgrade within the next 5 hours.</p>\n<!--- language code: en -->\n"},{"id":"8229ff7a","title":"Dropbox v115.4.601 released","date":"2021-02-05T04:53:50.995Z","modified":"2021-02-26T05:10:09.176Z","scheduled":null,"severity":"partial-outage","affectedsystems":["dropbox"],"resolved":true,"content":"<p>New Dropbox version has been released. Our automated processes are building a new key extraction agent to support it. All agents should automatically upgrade within the next 5 hours.</p>\n<!--- language code: en -->\n"},{"id":"6d9a1907","title":"Microsoft Edge v88.0.705.62 released","date":"2021-02-05T00:55:09.150Z","modified":"2021-02-26T05:10:09.182Z","scheduled":null,"severity":"partial-outage","affectedsystems":["edge"],"resolved":true,"content":"<p>New Microsoft Edge version has been released. Our automated processes are building a new key extraction agent to support it. All agents should automatically upgrade within the next 5 hours.</p>\n<!--- language code: en -->\n"},{"id":"4c9a6e98","title":"Google Chrome v88.0.4324.150 released","date":"2021-02-05T00:53:50.886Z","modified":"2021-02-26T05:10:09.179Z","scheduled":null,"severity":"partial-outage","affectedsystems":["chrome"],"resolved":true,"content":"<p>New Google Chrome version has been released. Our automated processes are building a new key extraction agent to support it. All agents should automatically upgrade within the next 5 hours.</p>\n<!--- language code: en -->\n"}]}