{"count":8,"page":2,"page_size":3,"total_pages":3,"periods":[{"id":"2020-10","incidents":[{"id":"767c2d92","title":"Microsoft Edge v86.0.622.56 released","date":"2020-10-28T10:46:36.349Z","modified":"2021-01-06T23:02:50.272Z","scheduled":null,"severity":"partial-outage","affectedsystems":["edge"],"resolved":true,"content":"<p>New Microsoft Edge version has been released. Our automated processes are building a new key extraction agent to support it. All agents should automatically upgrade within the next 5 hours.</p>\n<!--- language code: en -->\n"},{"id":"f954a816","title":"Microsoft Edge v86.0.622.43 released","date":"2020-10-17T11:00:34.693Z","modified":"2021-01-06T23:02:50.270Z","scheduled":null,"severity":"partial-outage","affectedsystems":["edge"],"resolved":true,"content":"<p>New Microsoft Edge version has been released. Our automated processes are building a new key extraction agent to support it. All agents should automatically upgrade within the next 5 hours.</p>\n<!--- language code: en -->\n"},{"id":"04cd0d42","title":"Support Dropbox v107.4.443","date":"2020-10-16T03:51:44.056Z","modified":"2021-01-06T23:02:50.268Z","scheduled":null,"severity":"partial-outage","affectedsystems":["dropbox"],"resolved":true,"content":"<p>New Dropbox version has been released. Our automated processes are building a new key extraction agent to support it. All agents should automatically upgrade within the next 5 hours.</p>\n<!--- language code: en -->\n"},{"id":"6ea76480","title":"Dropbox v107.4.443 released","date":"2020-10-16T01:35:59.000Z","modified":"2021-01-06T23:02:50.266Z","scheduled":null,"severity":"partial-outage","affectedsystems":["dropbox"],"resolved":true,"content":"<p>New Dropbox version has been released. Our automated processes are building a new key extraction agent to support it. All agents should automatically upgrade within the next 5 hours.</p>\n"},{"id":"78ce43d2","title":"LSASS v10.0.19041.546 released","date":"2020-10-15T12:36:04.636Z","modified":"2021-01-06T23:02:50.265Z","scheduled":null,"severity":"partial-outage","affectedsystems":["lsass_win10_2004"],"resolved":true,"content":"<p>New LSASS version has been released. Our automated processes are building a new key extraction agent to support it. All agents should automatically upgrade within the next 5 hours.</p>\n<!--- language code: en -->\n"},{"id":"1dc02051","title":"Google Chrome v86.0.4240.75 released","date":"2020-10-07T00:38:34.546Z","modified":"2021-01-06T23:02:50.263Z","scheduled":null,"severity":"partial-outage","affectedsystems":["chrome"],"resolved":true,"content":"<p>New Google Chrome version has been released. Our automated processes are building a new key extraction agent to support it. All agents should automatically upgrade within the next 5 hours.</p>\n<!--- language code: en -->\n"}],"order":4,"count":6},{"id":"2020-9","incidents":[{"id":"1997656e","title":"Dropbox v106.4.368 released","date":"2020-09-29T23:05:37.978Z","modified":"2021-01-06T23:02:50.261Z","scheduled":null,"severity":"partial-outage","affectedsystems":["dropbox"],"resolved":true,"content":"<p>New Dropbox version has been released. Our automated processes are building a new key extraction agent to support it. All agents should automatically upgrade within the next 5 hours.</p>\n<!--- language code: en -->\n"},{"id":"2f98a72a","title":"Microsoft Edge v85.0.564.63 released","date":"2020-09-25T02:31:59.851Z","modified":"2021-01-06T23:02:50.259Z","scheduled":null,"severity":"partial-outage","affectedsystems":["edge"],"resolved":true,"content":"<p>New Microsoft Edge version has been released. Our automated processes are building a new key extraction agent to support it. All agents should automatically upgrade within the next 5 hours.</p>\n<!--- language code: en -->\n"},{"id":"05da04a3","title":"Google Chrome v85.0.4183.121 released","date":"2020-09-22T00:02:02.762Z","modified":"2021-01-06T23:02:50.257Z","scheduled":null,"severity":"partial-outage","affectedsystems":["chrome"],"resolved":true,"content":"<p>New Google Chrome version has been released. Our automated processes are building a new key extraction agent to support it. All agents should automatically upgrade within the next 5 hours.</p>\n<!--- language code: en -->\n"},{"id":"4604db42","title":"LSASS (Windows Server 2016) v10.0.14393.3930","date":"2020-09-14T15:49:38.980Z","modified":"2021-01-06T23:02:50.251Z","scheduled":null,"severity":"partial-outage","affectedsystems":["lsass_winserv2016"],"resolved":true,"content":"<p>New LSASS (Windows Server 2016) version has been released. Our automated processes are building a new key extraction agent to support it. All agents should automatically upgrade within the next 5 hours.</p>\n<!--- language code: en -->\n"},{"id":"c1c3cf02","title":"LSASS (Windows Server 2019) v10.0.17763.1457 released","date":"2020-09-14T15:49:02.855Z","modified":"2021-01-06T23:02:50.252Z","scheduled":null,"severity":"partial-outage","affectedsystems":["lsass_winserv2019"],"resolved":true,"content":"<p>New LSASS (Windows Server 2019) version has been released. Our automated processes are building a new key extraction agent to support it. All agents should automatically upgrade within the next 5 hours.</p>\n<!--- language code: en -->\n"},{"id":"46a11f2e","title":"Microsoft Edge v85.0.564.51 released","date":"2020-09-14T15:02:24.849Z","modified":"2021-01-06T23:02:50.255Z","scheduled":null,"severity":"partial-outage","affectedsystems":["edge"],"resolved":true,"content":"<p>New Microsoft Edge version has been released. Our automated processes are building a new key extraction agent to support it. All agents should automatically upgrade within the next 5 hours.</p>\n<!--- language code: en -->\n"},{"id":"0530735a","title":"LSASS (Windows 10 v1909) v10.0.18362.1082 released","date":"2020-09-14T15:01:32.428Z","modified":"2021-01-06T23:02:50.249Z","scheduled":null,"severity":"partial-outage","affectedsystems":["lsass_win10_1909"],"resolved":true,"content":"<p>New LSASS (Windows 10 v1909) version has been released. Our automated processes are building a new key extraction agent to support it. All agents should automatically upgrade within the next 5 hours.</p>\n<!--- language code: en -->\n"},{"id":"23f716c2","title":"LSASS (Windows 10 v2004) vv10.0.19041.508 released","date":"2020-09-09T12:38:34.638Z","modified":"2021-01-06T23:02:50.248Z","scheduled":null,"severity":"partial-outage","affectedsystems":["lsass_win10_2004"],"resolved":true,"content":"<p>New LSASS (Windows 10 v2004) v10.0.19041.508 version has been released. Our automated processes are building a new key extraction agent to support it. All agents should automatically upgrade within the next 5 hours.</p>\n<!--- language code: en -->\n"},{"id":"cc39e386","title":"Google Chrome v85.0.4183.102 released","date":"2020-09-09T03:07:07.210Z","modified":"2021-01-06T23:02:50.246Z","scheduled":null,"severity":"partial-outage","affectedsystems":["chrome"],"resolved":true,"content":"<p>New Google Chrome version has been released. Our automated processes are building a new key extraction agent to support it. All agents should automatically upgrade within the next 5 hours.</p>\n<!--- language code: en -->\n"},{"id":"b495a1a8","title":"Microsoft Edge v85.0.564.44 released","date":"2020-09-02T01:32:49.026Z","modified":"2021-01-06T23:02:50.245Z","scheduled":null,"severity":"partial-outage","affectedsystems":["edge"],"resolved":true,"content":"<p>New Microsoft Edge version has been released. Our automated processes are building a new key extraction agent to support it. All agents should automatically upgrade within the next 5 hours.</p>\n<!--- language code: en -->\n"}],"order":5,"count":10},{"id":"2020-8","incidents":[{"id":"463638da","title":"Microsoft Edge v85.0.564.41 released","date":"2020-08-31T14:20:57.133Z","modified":"2021-01-06T23:02:50.242Z","scheduled":null,"severity":"partial-outage","affectedsystems":["edge"],"resolved":true,"content":"<p>New Microsoft Edge version has been released. Our automated processes are building a new key extraction agent to support it. All agents should automatically upgrade within the next 5 hours.</p>\n<!--- language code: en -->\n"},{"id":"6d7e0fe2","title":"Google Chrome v85.0.4183.83 released","date":"2020-08-25T22:12:02.556Z","modified":"2021-01-06T23:02:50.240Z","scheduled":null,"severity":"partial-outage","affectedsystems":["chrome"],"resolved":true,"content":"<p>New Google Chrome version has been released. Our automated processes are building a new key extraction agent to support it. All agents should automatically upgrade within the next 5 hours.</p>\n<!--- language code: en -->\n"},{"id":"a44ab934","title":"Microsoft Edge v84.0.522.63 released","date":"2020-08-21T22:40:22.402Z","modified":"2021-01-06T23:02:50.237Z","scheduled":null,"severity":"partial-outage","affectedsystems":["edge"],"resolved":true,"content":"<p>New Microsoft Edge version has been released. Our automated processes are building a new key extraction agent to support it. All agents should automatically upgrade within the next 5 hours.</p>\n<!--- language code: en -->\n"},{"id":"fac15332","title":"Google Chrome v84.0.4147.135 released","date":"2020-08-19T00:50:45.000Z","modified":"2021-01-06T23:02:50.233Z","scheduled":null,"severity":"partial-outage","affectedsystems":["chrome"],"resolved":true,"content":"<p>New Google Chrome version has been released. Our automated processes are building a new key extraction agent to support it. All agents should automatically upgrade within the next 5 hours.</p>\n"},{"id":"bc5ee368","title":"Microsoft Edge v84.0.522.61 released","date":"2020-08-19T00:43:01.000Z","modified":"2021-01-06T23:02:50.235Z","scheduled":null,"severity":"partial-outage","affectedsystems":["edge"],"resolved":true,"content":"<p>New Microsoft Edge version has been released. Our automated processes are building a new key extraction agent to support it. All agents should automatically upgrade within the next 5 hours.</p>\n"},{"id":"b6a91f36","title":"Dropbox v104.4.175 released","date":"2020-08-14T04:28:31.000Z","modified":"2021-01-06T23:02:50.229Z","scheduled":null,"severity":"partial-outage","affectedsystems":["dropbox"],"resolved":true,"content":"<p>New Dropbox version has been released. Our automated processes are building a new key extraction agent to support it. All agents should automatically upgrade within the next 5 hours.</p>\n"},{"id":"7976bf18","title":"LSASS (Windows 10 v1909; v10.0.18362.997) released","date":"2020-08-11T22:37:17.407Z","modified":"2021-01-06T23:02:50.223Z","scheduled":null,"severity":"partial-outage","affectedsystems":["lsass_win10_1909"],"resolved":true,"content":"<p>New LSASS (Windows 10 v1909) version has been released. Our automated processes are building a new key extraction agent to support it. All agents should automatically upgrade within the next 5 hours.</p>\n<!--- language code: en -->\n"},{"id":"6cfd18ef","title":"Google Chrome v84.0.4147.125 released","date":"2020-08-11T22:01:07.454Z","modified":"2021-01-06T23:02:50.220Z","scheduled":null,"severity":"partial-outage","affectedsystems":["chrome"],"resolved":true,"content":"<p>New Google Chrome version has been released. Our automated processes are building a new key extraction agent to support it. All agents should automatically upgrade within the next 5 hours.</p>\n<!--- language code: en -->\n"},{"id":"5ba9cbae","title":"Microsoft Edge v84.0.522.59 released","date":"2020-08-11T21:20:42.000Z","modified":"2021-01-06T23:02:50.226Z","scheduled":null,"severity":"partial-outage","affectedsystems":["edge"],"resolved":true,"content":"<p>New Microsoft Edge version has been released. Our automated processes are building a new key extraction agent to support it. All agents should automatically upgrade within the next 5 hours.</p>\n"},{"id":"6d26c52d","title":"Microsoft Edge v84.0.522.58 released","date":"2020-08-11T21:03:38.000Z","modified":"2021-01-06T23:02:50.225Z","scheduled":null,"severity":"partial-outage","affectedsystems":["edge"],"resolved":true,"content":"<p>New Microsoft Edge version has been released. Our automated processes are building a new key extraction agent to support it. All agents should automatically upgrade within the next 5 hours.</p>\n"},{"id":"ab6eb942","title":"Dropbox v103.4.383 released","date":"2020-08-06T18:00:08.000Z","modified":"2021-01-06T23:02:50.217Z","scheduled":null,"severity":"partial-outage","affectedsystems":["dropbox"],"resolved":true,"content":"<p>New Dropbox version has been released. Our automated processes are building a new key extraction agent to support it. All agents should automatically upgrade within the next 5 hours.</p>\n"},{"id":"62a12df0","title":"Microsoft Edge v84.0.522.52 released","date":"2020-08-02T06:00:15.000Z","modified":"2021-01-06T23:02:50.215Z","scheduled":null,"severity":"partial-outage","affectedsystems":["edge"],"resolved":true,"content":"<p>New Microsoft Edge version has been released. Our automated processes are building a new key extraction agent to support it. All agents should automatically upgrade within the next 5 hours.</p>\n"}],"order":6,"count":12}]}