{"count":10,"page":3,"page_size":3,"total_pages":4,"periods":[{"id":"2020-9","incidents":[{"id":"1997656e","title":"Dropbox v106.4.368 released","date":"2020-09-29T23:05:37.978Z","modified":"2021-03-03T03:20:17.138Z","scheduled":null,"severity":"partial-outage","affectedsystems":["dropbox"],"resolved":true,"content":"<p>New Dropbox version has been released. Our automated processes are building a new key extraction agent to support it. All agents should automatically upgrade within the next 5 hours.</p>\n<!--- language code: en -->\n"},{"id":"2f98a72a","title":"Microsoft Edge v85.0.564.63 released","date":"2020-09-25T02:31:59.851Z","modified":"2021-03-03T03:20:17.137Z","scheduled":null,"severity":"partial-outage","affectedsystems":["edge"],"resolved":true,"content":"<p>New Microsoft Edge version has been released. Our automated processes are building a new key extraction agent to support it. All agents should automatically upgrade within the next 5 hours.</p>\n<!--- language code: en -->\n"},{"id":"05da04a3","title":"Google Chrome v85.0.4183.121 released","date":"2020-09-22T00:02:02.762Z","modified":"2021-03-03T03:20:17.136Z","scheduled":null,"severity":"partial-outage","affectedsystems":["chrome"],"resolved":true,"content":"<p>New Google Chrome version has been released. Our automated processes are building a new key extraction agent to support it. All agents should automatically upgrade within the next 5 hours.</p>\n<!--- language code: en -->\n"},{"id":"4604db42","title":"LSASS (Windows Server 2016) v10.0.14393.3930","date":"2020-09-14T15:49:38.980Z","modified":"2021-03-03T03:20:17.133Z","scheduled":null,"severity":"partial-outage","affectedsystems":["lsass_winserv2016"],"resolved":true,"content":"<p>New LSASS (Windows Server 2016) version has been released. Our automated processes are building a new key extraction agent to support it. All agents should automatically upgrade within the next 5 hours.</p>\n<!--- language code: en -->\n"},{"id":"c1c3cf02","title":"LSASS (Windows Server 2019) v10.0.17763.1457 released","date":"2020-09-14T15:49:02.855Z","modified":"2021-03-03T03:20:17.134Z","scheduled":null,"severity":"partial-outage","affectedsystems":["lsass_winserv2019"],"resolved":true,"content":"<p>New LSASS (Windows Server 2019) version has been released. Our automated processes are building a new key extraction agent to support it. All agents should automatically upgrade within the next 5 hours.</p>\n<!--- language code: en -->\n"},{"id":"46a11f2e","title":"Microsoft Edge v85.0.564.51 released","date":"2020-09-14T15:02:24.849Z","modified":"2021-03-03T03:20:17.135Z","scheduled":null,"severity":"partial-outage","affectedsystems":["edge"],"resolved":true,"content":"<p>New Microsoft Edge version has been released. Our automated processes are building a new key extraction agent to support it. All agents should automatically upgrade within the next 5 hours.</p>\n<!--- language code: en -->\n"},{"id":"0530735a","title":"LSASS (Windows 10 v1909) v10.0.18362.1082 released","date":"2020-09-14T15:01:32.428Z","modified":"2021-03-03T03:20:17.133Z","scheduled":null,"severity":"partial-outage","affectedsystems":["lsass_win10_1909"],"resolved":true,"content":"<p>New LSASS (Windows 10 v1909) version has been released. Our automated processes are building a new key extraction agent to support it. All agents should automatically upgrade within the next 5 hours.</p>\n<!--- language code: en -->\n"},{"id":"23f716c2","title":"LSASS (Windows 10 v2004) vv10.0.19041.508 released","date":"2020-09-09T12:38:34.638Z","modified":"2021-03-03T03:20:17.132Z","scheduled":null,"severity":"partial-outage","affectedsystems":["lsass_win10_2004"],"resolved":true,"content":"<p>New LSASS (Windows 10 v2004) v10.0.19041.508 version has been released. Our automated processes are building a new key extraction agent to support it. All agents should automatically upgrade within the next 5 hours.</p>\n<!--- language code: en -->\n"},{"id":"cc39e386","title":"Google Chrome v85.0.4183.102 released","date":"2020-09-09T03:07:07.210Z","modified":"2021-03-03T03:20:17.131Z","scheduled":null,"severity":"partial-outage","affectedsystems":["chrome"],"resolved":true,"content":"<p>New Google Chrome version has been released. Our automated processes are building a new key extraction agent to support it. All agents should automatically upgrade within the next 5 hours.</p>\n<!--- language code: en -->\n"},{"id":"b495a1a8","title":"Microsoft Edge v85.0.564.44 released","date":"2020-09-02T01:32:49.026Z","modified":"2021-03-03T03:20:17.130Z","scheduled":null,"severity":"partial-outage","affectedsystems":["edge"],"resolved":true,"content":"<p>New Microsoft Edge version has been released. Our automated processes are building a new key extraction agent to support it. All agents should automatically upgrade within the next 5 hours.</p>\n<!--- language code: en -->\n"}],"order":7,"count":10},{"id":"2020-8","incidents":[{"id":"463638da","title":"Microsoft Edge v85.0.564.41 released","date":"2020-08-31T14:20:57.133Z","modified":"2021-03-03T03:20:17.129Z","scheduled":null,"severity":"partial-outage","affectedsystems":["edge"],"resolved":true,"content":"<p>New Microsoft Edge version has been released. Our automated processes are building a new key extraction agent to support it. All agents should automatically upgrade within the next 5 hours.</p>\n<!--- language code: en -->\n"},{"id":"6d7e0fe2","title":"Google Chrome v85.0.4183.83 released","date":"2020-08-25T22:12:02.556Z","modified":"2021-03-03T03:20:17.127Z","scheduled":null,"severity":"partial-outage","affectedsystems":["chrome"],"resolved":true,"content":"<p>New Google Chrome version has been released. Our automated processes are building a new key extraction agent to support it. All agents should automatically upgrade within the next 5 hours.</p>\n<!--- language code: en -->\n"},{"id":"a44ab934","title":"Microsoft Edge v84.0.522.63 released","date":"2020-08-21T22:40:22.402Z","modified":"2021-03-03T03:20:17.126Z","scheduled":null,"severity":"partial-outage","affectedsystems":["edge"],"resolved":true,"content":"<p>New Microsoft Edge version has been released. Our automated processes are building a new key extraction agent to support it. All agents should automatically upgrade within the next 5 hours.</p>\n<!--- language code: en -->\n"},{"id":"fac15332","title":"Google Chrome v84.0.4147.135 released","date":"2020-08-19T00:50:45.000Z","modified":"2021-03-03T03:20:17.125Z","scheduled":null,"severity":"partial-outage","affectedsystems":["chrome"],"resolved":true,"content":"<p>New Google Chrome version has been released. Our automated processes are building a new key extraction agent to support it. All agents should automatically upgrade within the next 5 hours.</p>\n"},{"id":"bc5ee368","title":"Microsoft Edge v84.0.522.61 released","date":"2020-08-19T00:43:01.000Z","modified":"2021-03-03T03:20:17.125Z","scheduled":null,"severity":"partial-outage","affectedsystems":["edge"],"resolved":true,"content":"<p>New Microsoft Edge version has been released. Our automated processes are building a new key extraction agent to support it. All agents should automatically upgrade within the next 5 hours.</p>\n"},{"id":"b6a91f36","title":"Dropbox v104.4.175 released","date":"2020-08-14T04:28:31.000Z","modified":"2021-03-03T03:20:17.123Z","scheduled":null,"severity":"partial-outage","affectedsystems":["dropbox"],"resolved":true,"content":"<p>New Dropbox version has been released. Our automated processes are building a new key extraction agent to support it. All agents should automatically upgrade within the next 5 hours.</p>\n"},{"id":"7976bf18","title":"LSASS (Windows 10 v1909; v10.0.18362.997) released","date":"2020-08-11T22:37:17.407Z","modified":"2021-03-03T03:20:17.120Z","scheduled":null,"severity":"partial-outage","affectedsystems":["lsass_win10_1909"],"resolved":true,"content":"<p>New LSASS (Windows 10 v1909) version has been released. Our automated processes are building a new key extraction agent to support it. All agents should automatically upgrade within the next 5 hours.</p>\n<!--- language code: en -->\n"},{"id":"6cfd18ef","title":"Google Chrome v84.0.4147.125 released","date":"2020-08-11T22:01:07.454Z","modified":"2021-03-03T03:20:17.120Z","scheduled":null,"severity":"partial-outage","affectedsystems":["chrome"],"resolved":true,"content":"<p>New Google Chrome version has been released. Our automated processes are building a new key extraction agent to support it. All agents should automatically upgrade within the next 5 hours.</p>\n<!--- language code: en -->\n"},{"id":"5ba9cbae","title":"Microsoft Edge v84.0.522.59 released","date":"2020-08-11T21:20:42.000Z","modified":"2021-03-03T03:20:17.122Z","scheduled":null,"severity":"partial-outage","affectedsystems":["edge"],"resolved":true,"content":"<p>New Microsoft Edge version has been released. Our automated processes are building a new key extraction agent to support it. All agents should automatically upgrade within the next 5 hours.</p>\n"},{"id":"6d26c52d","title":"Microsoft Edge v84.0.522.58 released","date":"2020-08-11T21:03:38.000Z","modified":"2021-03-03T03:20:17.121Z","scheduled":null,"severity":"partial-outage","affectedsystems":["edge"],"resolved":true,"content":"<p>New Microsoft Edge version has been released. Our automated processes are building a new key extraction agent to support it. All agents should automatically upgrade within the next 5 hours.</p>\n"},{"id":"ab6eb942","title":"Dropbox v103.4.383 released","date":"2020-08-06T18:00:08.000Z","modified":"2021-03-03T03:20:17.118Z","scheduled":null,"severity":"partial-outage","affectedsystems":["dropbox"],"resolved":true,"content":"<p>New Dropbox version has been released. Our automated processes are building a new key extraction agent to support it. All agents should automatically upgrade within the next 5 hours.</p>\n"},{"id":"62a12df0","title":"Microsoft Edge v84.0.522.52 released","date":"2020-08-02T06:00:15.000Z","modified":"2021-03-03T03:20:17.117Z","scheduled":null,"severity":"partial-outage","affectedsystems":["edge"],"resolved":true,"content":"<p>New Microsoft Edge version has been released. Our automated processes are building a new key extraction agent to support it. All agents should automatically upgrade within the next 5 hours.</p>\n"}],"order":8,"count":12},{"id":"2020-7","incidents":[{"id":"44ec9204","title":"Microsoft Edge v84.0.522.50 released","date":"2020-07-31T23:00:08.000Z","modified":"2021-03-03T03:20:17.116Z","scheduled":null,"severity":"partial-outage","affectedsystems":["edge"],"resolved":true,"content":"<p>New Microsoft Edge version has been released. Our automated processes are building a new key extraction agent to support it. All agents should automatically upgrade within the next 5 hours.</p>\n"},{"id":"3909d7ed","title":"Microsoft Edge v84.0.522.49 released","date":"2020-07-30T21:44:44.000Z","modified":"2021-03-03T03:20:17.116Z","scheduled":null,"severity":"partial-outage","affectedsystems":["edge"],"resolved":true,"content":"<p>New Microsoft Edge version has been released. Our automated processes are building a new key extraction agent to support it. All agents should automatically upgrade within the next 5 hours.</p>\n"},{"id":"204170ab","title":"Google Chrome v84.0.4147.105 released","date":"2020-07-28T00:05:40.000Z","modified":"2021-03-03T03:20:17.114Z","scheduled":null,"severity":"partial-outage","affectedsystems":["chrome"],"resolved":true,"content":"<p>New Google Chrome version has been released. Our automated processes are building a new key extraction agent to support it. All agents should automatically upgrade within the next 5 hours.</p>\n"},{"id":"5652f762","title":"Microsoft Edge v84.0.522.44 released","date":"2020-07-26T15:50:44.000Z","modified":"2021-03-03T03:20:17.113Z","scheduled":null,"severity":"partial-outage","affectedsystems":["edge"],"resolved":true,"content":"<p>New Microsoft Edge version has been released. Our automated processes are building a new key extraction agent to support it. All agents should automatically upgrade within the next 5 hours.</p>\n"},{"id":"64346787","title":"Dropbox v102.4.431 released","date":"2020-07-22T21:36:44.823Z","modified":"2021-03-03T03:20:17.112Z","scheduled":null,"severity":"partial-outage","affectedsystems":["dropbox"],"resolved":true,"content":"<p>New Dropbox version has been released. Our automated processes are building a new key extraction agent to support it. All agents should automatically upgrade within the next 5 hours.</p>\n<!--- language code: en -->\n"},{"id":"bef2b0e6","title":"LSASS (Windows Server 2016; v10.0.14393.3808)","date":"2020-07-20T14:52:23.161Z","modified":"2021-03-03T03:20:17.108Z","scheduled":null,"severity":"partial-outage","affectedsystems":["lsass_winserv2016"],"resolved":true,"content":"<p>New LSASS (Windows Server 2016; v10.0.14393.3808) version has been released. Our automated processes are building a new key extraction agent to support it. All agents should automatically upgrade within the next 5 hours.</p>\n<!--- language code: en -->\n"},{"id":"728163df","title":"LSASS (Windows Server 2019; v10.0.17763.1339) released","date":"2020-07-20T14:45:07.434Z","modified":"2021-03-03T03:20:17.109Z","scheduled":null,"severity":"partial-outage","affectedsystems":["lsass_winserv2019"],"resolved":true,"content":"<p>New LSASS (Windows Server 2019; v10.0.17763.1339) version has been released. Our automated processes are building a new key extraction agent to support it. All agents should automatically upgrade within the next 5 hours.</p>\n<!--- language code: en -->\n"},{"id":"dbd8ebea","title":"LSASS (Windows 10 v2004; v10.0.19041.388) released","date":"2020-07-20T14:15:14.470Z","modified":"2021-03-03T03:20:17.107Z","scheduled":null,"severity":"partial-outage","affectedsystems":["lsass_win10_2004"],"resolved":true,"content":"<p>New LSASS (Windows 10 v2004; v10.0.19041.388) version has been released. Our automated processes are building a new key extraction agent to support it. All agents should automatically upgrade within the next 5 hours.</p>\n<!--- language code: en -->\n"},{"id":"61ed2f76","title":"Microsoft Edge v84.0.522.40 released","date":"2020-07-20T13:03:16.743Z","modified":"2021-03-03T03:20:17.111Z","scheduled":null,"severity":"partial-outage","affectedsystems":["edge"],"resolved":true,"content":"<p>New Microsoft Edge version has been released. Our automated processes are building a new key extraction agent to support it. All agents should automatically upgrade within the next 5 hours.</p>\n<!--- language code: en -->\n"},{"id":"7bf15cbb","title":"Google Chrome v84.0.4147.89 released","date":"2020-07-20T13:02:14.424Z","modified":"2021-03-03T03:20:17.106Z","scheduled":null,"severity":"partial-outage","affectedsystems":["chrome"],"resolved":true,"content":"<p>New Google Chrome version has been released. Our automated processes are building a new key extraction agent to support it. All agents should automatically upgrade within the next 5 hours.</p>\n<!--- language code: en -->\n"},{"id":"f445bfdc","title":"LSASS (Windows 10 v1909; 10.0.18362.959) released","date":"2020-07-20T11:52:45.000Z","modified":"2021-03-03T03:20:17.110Z","scheduled":null,"severity":"partial-outage","affectedsystems":["lsass_win10_1909"],"resolved":true,"content":"<p>New Lsass version has been released. Our automated processes are building a new key extraction agent to support it. All agents should automatically upgrade within the next 5 hours.</p>\n"},{"id":"6923dc4f","title":"Microsoft Edge v83.0.478.61 released","date":"2020-07-09T04:13:37.000Z","modified":"2021-03-03T03:20:17.104Z","scheduled":null,"severity":"partial-outage","affectedsystems":["edge"],"resolved":true,"content":"<p>New Microsoft Edge version has been released. Our automated processes are building a new key extraction agent to support it. All agents should automatically upgrade within the next 5 hours.</p>\n"},{"id":"d0f5befe","title":"Dropbox v101.4.434 released","date":"2020-07-09T04:12:27.000Z","modified":"2021-03-03T03:20:17.103Z","scheduled":null,"severity":"partial-outage","affectedsystems":["dropbox"],"resolved":true,"content":"<p>New Dropbox version has been released. Our automated processes are building a new key extraction agent to support it. All agents should automatically upgrade within the next 5 hours.</p>\n"},{"id":"7dcb839e","title":"Microsoft Edge v83.0.478.58 released","date":"2020-07-02T02:30:45.744Z","modified":"2021-03-03T03:20:17.102Z","scheduled":null,"severity":"partial-outage","affectedsystems":["edge"],"resolved":true,"content":"<p>New Microsoft Edge version has been released. Our automated processes are building a new key extraction agent to support it. All agents should automatically upgrade within the next 5 hours.</p>\n<!--- language code: en -->\n"}],"order":9,"count":14}]}