{"count":9,"page":1,"page_size":3,"total_pages":3,"periods":[{"id":"2021-2","incidents":[{"id":"19f73c7e","title":"Google Chrome v88.0.4324.146 released","date":"2021-02-03T00:38:35.445Z","modified":"2021-02-03T00:39:19.325Z","scheduled":null,"severity":"partial-outage","affectedsystems":["chrome"],"resolved":true,"content":"<p>New Google Chrome version has been released. Our automated processes are building a new key extraction agent to support it. All agents should automatically upgrade within the next 5 hours.</p>\n<!--- language code: en -->\n"}],"order":1,"count":1},{"id":"2021-1","incidents":[{"id":"77b1d362","title":"Microsoft Edge v88.0.705.56 released","date":"2021-01-29T10:30:07.550Z","modified":"2021-02-03T00:39:19.324Z","scheduled":null,"severity":"partial-outage","affectedsystems":["edge"],"resolved":true,"content":"<p>New Microsoft Edge version has been released. Our automated processes are building a new key extraction agent to support it. All agents should automatically upgrade within the next 5 hours.</p>\n<!--- language code: en -->\n"},{"id":"4f0bb5c2","title":"Dropbox v114.4.426 released","date":"2021-01-27T13:01:21.437Z","modified":"2021-02-03T00:39:19.322Z","scheduled":null,"severity":"partial-outage","affectedsystems":["dropbox"],"resolved":true,"content":"<p>New Dropbox version has been released. Our automated processes are building a new key extraction agent to support it. All agents should automatically upgrade within the next 5 hours.</p>\n<!--- language code: en -->\n"},{"id":"4144a66c","title":"Microsoft Edge v88.0.705.53 released","date":"2021-01-27T13:00:04.886Z","modified":"2021-02-03T00:39:19.323Z","scheduled":null,"severity":"partial-outage","affectedsystems":["edge"],"resolved":true,"content":"<p>New Microsoft Edge version has been released. Our automated processes are building a new key extraction agent to support it. All agents should automatically upgrade within the next 5 hours.</p>\n<!--- language code: en -->\n"},{"id":"3d58257a","title":"Microsoft Edge v88.0.705.50 released","date":"2021-01-23T03:59:26.378Z","modified":"2021-02-03T00:39:19.321Z","scheduled":null,"severity":"partial-outage","affectedsystems":["edge"],"resolved":true,"content":"<p>New Microsoft Edge version has been released. Our automated processes are building a new key extraction agent to support it. All agents should automatically upgrade within the next 5 hours.</p>\n<!--- language code: en -->\n"},{"id":"5d12f22a","title":"Dropbox v113.4.507 released","date":"2021-01-22T00:48:13.733Z","modified":"2021-02-03T00:39:19.320Z","scheduled":null,"severity":"partial-outage","affectedsystems":["dropbox"],"resolved":true,"content":"<p>New Dropbox version has been released. Our automated processes are building a new key extraction agent to support it. All agents should automatically upgrade within the next 5 hours.</p>\n<!--- language code: en -->\n"},{"id":"a0c241f4","title":"Google Chrome v88.0.4324.104 released","date":"2021-01-21T22:42:45.763Z","modified":"2021-02-03T00:39:19.319Z","scheduled":null,"severity":"partial-outage","affectedsystems":["chrome"],"resolved":true,"content":"<p>New Google Chrome version has been released. Our automated processes are building a new key extraction agent to support it. All agents should automatically upgrade within the next 5 hours.</p>\n<!--- language code: en -->\n"},{"id":"95727194","title":"Microsoft Edge v87.0.664.75 released","date":"2021-01-08T12:43:06.714Z","modified":"2021-02-03T00:39:19.318Z","scheduled":null,"severity":"partial-outage","affectedsystems":["edge"],"resolved":true,"content":"<p>New Microsoft Edge version has been released. Our automated processes are building a new key extraction agent to support it. All agents should automatically upgrade within the next 5 hours.</p>\n<!--- language code: en -->\n"},{"id":"551c022e","title":"Google Chrome v87.0.4280.141 released","date":"2021-01-06T23:02:10.784Z","modified":"2021-02-03T00:39:19.317Z","scheduled":null,"severity":"partial-outage","affectedsystems":["chrome"],"resolved":true,"content":"<p>New Google Chrome version has been released. Our automated processes are building a new key extraction agent to support it. All agents should automatically upgrade within the next 5 hours.</p>\n<!--- language code: en -->\n"}],"order":2,"count":8},{"id":"2020-12","incidents":[{"id":"3f2f7224","title":"Microsoft Edge v87.0.664.66 released","date":"2020-12-18T04:47:47.966Z","modified":"2021-02-03T00:39:19.316Z","scheduled":null,"severity":"partial-outage","affectedsystems":["edge"],"resolved":true,"content":"<p>New Microsoft Edge version has been released. Our automated processes are building a new key extraction agent to support it. All agents should automatically upgrade within the next 5 hours.</p>\n<!--- language code: en -->\n"},{"id":"a58bf20c","title":"Dropbox v112.4.321 released","date":"2020-12-17T04:47:18.556Z","modified":"2021-02-03T00:39:19.314Z","scheduled":null,"severity":"partial-outage","affectedsystems":["dropbox"],"resolved":true,"content":"<p>New Dropbox version has been released. Our automated processes are building a new key extraction agent to support it. All agents should automatically upgrade within the next 5 hours.</p>\n<!--- language code: en -->\n"},{"id":"747196cd","title":"Microsoft Edge v87.0.664.60 released","date":"2020-12-12T10:46:22.430Z","modified":"2021-02-03T00:39:19.311Z","scheduled":null,"severity":"partial-outage","affectedsystems":["edge"],"resolved":true,"content":"<p>New Microsoft Edge version has been released. Our automated processes are building a new key extraction agent to support it. All agents should automatically upgrade within the next 5 hours.</p>\n<!--- language code: en -->\n"},{"id":"7d53b462","title":"OpenSSL 1.1.1i released","date":"2020-12-09T11:04:35.288Z","modified":"2021-02-03T00:39:19.313Z","scheduled":null,"severity":"partial-outage","affectedsystems":["openssl_111"],"resolved":true,"content":"<p>New OpenSSL version has been released. Our automated processes are building a new key extraction agent to support it. All agents should automatically upgrade within the next 5 hours.</p>\n<!--- language code: en -->\n"},{"id":"1828fab5","title":"Microsoft Edge v87.0.664.57 released","date":"2020-12-08T10:45:06.713Z","modified":"2021-02-03T00:39:19.309Z","scheduled":null,"severity":"partial-outage","affectedsystems":["edge"],"resolved":true,"content":"<p>New Microsoft Edge version has been released. Our automated processes are building a new key extraction agent to support it. All agents should automatically upgrade within the next 5 hours.</p>\n<!--- language code: en -->\n"},{"id":"7ada8a78","title":"Dropbox v111.4.472 released","date":"2020-12-04T10:18:24.488Z","modified":"2021-02-03T00:39:19.299Z","scheduled":null,"severity":"partial-outage","affectedsystems":["dropbox"],"resolved":true,"content":"<p>New Dropbox version has been released. Our automated processes are building a new key extraction agent to support it. All agents should automatically upgrade within the next 5 hours.</p>\n<!--- language code: en -->\n"},{"id":"3b22edb3","title":"Microsoft Edge v87.0.664.55 released","date":"2020-12-04T04:44:00.335Z","modified":"2021-02-03T00:39:19.307Z","scheduled":null,"severity":"partial-outage","affectedsystems":["edge"],"resolved":true,"content":"<p>New Microsoft Edge version has been released. Our automated processes are building a new key extraction agent to support it. All agents should automatically upgrade within the next 5 hours.</p>\n<!--- language code: en -->\n"},{"id":"68047eda","title":"Google Chrome v87.0.4280.88 released","date":"2020-12-03T10:58:35.283Z","modified":"2021-02-03T00:39:19.301Z","scheduled":null,"severity":"partial-outage","affectedsystems":["chrome"],"resolved":true,"content":"<p>New Google Chrome version has been released. Our automated processes are building a new key extraction agent to support it. All agents should automatically upgrade within the next 5 hours.</p>\n<!--- language code: en -->\n"},{"id":"6f99da30","title":"Microsoft Edge v87.0.664.52 released","date":"2020-12-01T10:41:43.107Z","modified":"2021-02-03T00:39:19.306Z","scheduled":null,"severity":"partial-outage","affectedsystems":["edge"],"resolved":true,"content":"<p>New Microsoft Edge version has been released. Our automated processes are building a new key extraction agent to support it. All agents should automatically upgrade within the next 5 hours.</p>\n<!--- language code: en -->\n"}],"order":3,"count":9}]}